999
dxflib 3.26.4.0
  0
SECTION
  2
HEADER
  9
$ACADVER
  1
AC1015
  9
$HANDSEED
  5
FFFF
  9
$DIMADEC
 70
0
  9
$DIMASZ
 40
0.18
  9
$DIMATFIT
 70
0
  9
$DIMAUNIT
 70
0
  9
$DIMAZIN
 70
0
  9
$DIMBLK
  1
0
  9
$DIMBLK1
  1
0
  9
$DIMBLK2
  1
0
  9
$DIMDEC
 70
4
  9
$DIMDLI
 40
0.36
  9
$DIMDSEP
 70
0
  9
$DIMEXE
 40
0.18
  9
$DIMEXO
 40
0.0625
  9
$DIMGAP
 40
0.09
  9
$DIMLFAC
 40
0.0
  9
$DIMLUNIT
 70
2
  9
$DIMSCALE
 40
0.0
  9
$DIMTAD
 70
0
  9
$DIMTIH
 70
0
  9
$DIMTSZ
 40
0.0
  9
$DIMTXT
 40
0.18
  9
$DIMZIN
 70
0
  9
$DWGCODEPAGE
  3
ANSI_1252
  9
$INSUNITS
 70
4
  9
$LTSCALE
 40
1.0
  9
$MAXACTVP
 70
64
  9
$MEASUREMENT
 70
1
  9
$MIRRTEXT
 70
0
  9
$PDMODE
 70
0
  9
$PDSIZE
 40
0.0
  0
ENDSEC
  0
SECTION
  2
TABLES
  0
TABLE
  2
VPORT
  5
8
100
AcDbSymbolTable
 70
1
  0
VPORT
  5
30
100
AcDbSymbolTableRecord
100
AcDbViewportTableRecord
  2
*Active
 70
0
 10
0.0
 20
0.0
 11
1.0
 21
1.0
 12
286.3055555555554861
 22
148.5
 13
0.0
 23
0.0
 14
10.0
 24
10.0
 15
10.0
 25
10.0
 16
0.0
 26
0.0
 36
1.0
 17
0.0
 27
0.0
 37
0.0
 40
297.0
 41
1.92798353909465
 42
50.0
 43
0.0
 44
0.0
 50
0.0
 51
0.0
 71
0
 72
100
 73
1
 74
3
 75
1
 76
1
 77
0
 78
0
281
0
 65
1
110
0.0
120
0.0
130
0.0
111
1.0
121
0.0
131
0.0
112
0.0
122
1.0
132
0.0
 79
0
146
0.0
  0
ENDTAB
  0
TABLE
  2
LTYPE
  5
5
100
AcDbSymbolTable
 70
41
  0
LTYPE
  5
16
100
AcDbSymbolTableRecord
100
AcDbLinetypeTableRecord
  2
Continuous
 70
0
  3
Solid line
 72
65
 73
0
 40
0.0
  0
LTYPE
  5
31
100
AcDbSymbolTableRecord
100
AcDbLinetypeTableRecord
  2
PHANTOM2
 70
0
  3
Phantom (.5x) ___ _ _ ___ _ _ ___ _ _ ___ _ _
 72
65
 73
6
 40
31.7500000000000036
 49
15.875
 74
0
 49
-3.1749999999999998
 74
0
 49
3.1749999999999998
 74
0
 49
-3.1749999999999998
 74
0
 49
3.1749999999999998
 74
0
 49
-3.1749999999999998
 74
0
  0
LTYPE
  5
32
100
AcDbSymbolTableRecord
100
AcDbLinetypeTableRecord
  2
DASHEDX2
 70
0
  3
Dashed (2x) ____  ____  ____  ____  ____  ___
 72
65
 73
2
 40
38.0999999999999943
 49
25.3999999999999986
 74
0
 49
-12.6999999999999993
 74
0
  0
LTYPE
  5
33
100
AcDbSymbolTableRecord
100
AcDbLinetypeTableRecord
  2
ACAD_ISO11W100
 70
0
  3
ISO double-dash dot __ __ . __ __ . __ __ . __ _
 72
65
 73
6
 40
33.0
 49
12.0
 74
0
 49
-3.0
 74
0
 49
12.0
 74
0
 49
-2.9500000000000002
 74
0
 49
0.1
 74
0
 49
-2.9500000000000002
 74
0
  0
LTYPE
  5
34
100
AcDbSymbolTableRecord
100
AcDbLinetypeTableRecord
  2
ACAD_ISO12W100
 70
0
  3
ISO dash double-dot __ . . __ . . __ . . __ . . 
 72
65
 73
6
 40
21.0
 49
12.0
 74
0
 49
-2.9500000000000002
 74
0
 49
0.1
 74
0
 49
-2.9000000000000004
 74
0
 49
0.1
 74
0
 49
-2.9500000000000002
 74
0
  0
LTYPE
  5
35
100
AcDbSymbolTableRecord
100
AcDbLinetypeTableRecord
  2
ACAD_ISO06W100
 70
0
  3
ISO long-dash triple-dot ____ ... ____ ... ____
 72
65
 73
8
 40
36.0000000000000071
 49
24.0
 74
0
 49
-2.9500000000000002
 74
0
 49
0.1
 74
0
 49
-2.9000000000000004
 74
0
 49
0.1
 74
0
 49
-2.9000000000000004
 74
0
 49
0.1
 74
0
 49
-2.9500000000000002
 74
0
  0
LTYPE
  5
36
100
AcDbSymbolTableRecord
100
AcDbLinetypeTableRecord
  2
DASHDOT
 70
0
  3
Dash dot __ . __ . __ . __ . __ . __ . __ . __
 72
65
 73
4
 40
25.4000000000000021
 49
12.6999999999999993
 74
0
 49
-6.2999999999999998
 74
0
 49
0.1
 74
0
 49
-6.2999999999999998
 74
0
  0
LTYPE
  5
37
100
AcDbSymbolTableRecord
100
AcDbLinetypeTableRecord
  2
ACAD_ISO15W100
 70
0
  3
ISO double-dash triple-dot __ __ . . . __ __ . .
 72
65
 73
10
 40
39.0000000000000071
 49
12.0
 74
0
 49
-3.0
 74
0
 49
12.0
 74
0
 49
-2.9500000000000002
 74
0
 49
0.1
 74
0
 49
-2.9000000000000004
 74
0
 49
0.1
 74
0
 49
-2.9000000000000004
 74
0
 49
0.1
 74
0
 49
-2.9500000000000002
 74
0
  0
LTYPE
  5
38
100
AcDbSymbolTableRecord
100
AcDbLinetypeTableRecord
  2
ACAD_ISO04W100
 70
0
  3
ISO long-dash dot ____ . ____ . ____ . ____ . _
 72
65
 73
4
 40
30.0
 49
24.0
 74
0
 49
-2.9500000000000002
 74
0
 49
0.1
 74
0
 49
-2.9500000000000002
 74
0
  0
LTYPE
  5
39
100
AcDbSymbolTableRecord
100
AcDbLinetypeTableRecord
  2
DOT
 70
0
  3
Dot . . . . . . . . . . . . . . . . . . . . . . . .
 72
65
 73
2
 40
6.3499999999999996
 49
0.1
 74
0
 49
-6.25
 74
0
  0
LTYPE
  5
3A
100
AcDbSymbolTableRecord
100
AcDbLinetypeTableRecord
  2
HIDDEN2
 70
0
  3
Hidden (.5x) _ _ _ _ _ _ _ _ _ _ _ _ _ _ _ _ _ 
 72
65
 73
2
 40
4.7624999999999993
 49
3.1749999999999998
 74
0
 49
-1.5874999999999999
 74
0
  0
LTYPE
  5
3B
100
AcDbSymbolTableRecord
100
AcDbLinetypeTableRecord
  2
ACAD_ISO08W100
 70
0
  3
ISO long-dash short-dash ____ __ ____ __ ____ _
 72
65
 73
4
 40
36.0
 49
24.0
 74
0
 49
-3.0
 74
0
 49
6.0
 74
0
 49
-3.0
 74
0
  0
LTYPE
  5
3C
100
AcDbSymbolTableRecord
100
AcDbLinetypeTableRecord
  2
DASHDOT2
 70
0
  3
Dash dot (.5x) _._._._._._._._._._._._._._._.
 72
65
 73
4
 40
12.6999999999999993
 49
6.3499999999999996
 74
0
 49
-3.125
 74
0
 49
0.1
 74
0
 49
-3.125
 74
0
  0
LTYPE
  5
3D
100
AcDbSymbolTableRecord
100
AcDbLinetypeTableRecord
  2
ACAD_ISO03W100
 70
0
  3
ISO dash space __    __    __    __    __    __
 72
65
 73
2
 40
30.0
 49
12.0
 74
0
 49
-18.0
 74
0
  0
LTYPE
  5
3E
100
AcDbSymbolTableRecord
100
AcDbLinetypeTableRecord
  2
ACAD_ISO13W100
 70
0
  3
ISO double-dash double-dot __ __ . . __ __ . . _
 72
65
 73
8
 40
36.0000000000000071
 49
12.0
 74
0
 49
-3.0
 74
0
 49
12.0
 74
0
 49
-2.9500000000000002
 74
0
 49
0.1
 74
0
 49
-2.9000000000000004
 74
0
 49
0.1
 74
0
 49
-2.9500000000000002
 74
0
  0
LTYPE
  5
3F
100
AcDbSymbolTableRecord
100
AcDbLinetypeTableRecord
  2
ACAD_ISO09W100
 70
0
  3
ISO long-dash double-short-dash ____ __ __ ____
 72
65
 73
6
 40
45.0
 49
24.0
 74
0
 49
-3.0
 74
0
 49
6.0
 74
0
 49
-3.0
 74
0
 49
6.0
 74
0
 49
-3.0
 74
0
  0
LTYPE
  5
40
100
AcDbSymbolTableRecord
100
AcDbLinetypeTableRecord
  2
ACAD_ISO02W100
 70
0
  3
ISO dash __ __ __ __ __ __ __ __ __ __ __ __ __
 72
65
 73
2
 40
15.0
 49
12.0
 74
0
 49
-3.0
 74
0
  0
LTYPE
  5
41
100
AcDbSymbolTableRecord
100
AcDbLinetypeTableRecord
  2
ACAD_ISO07W100
 70
0
  3
ISO dot . . . . . . . . . . . . . . . . . . . . 
 72
65
 73
2
 40
3.0
 49
0.1
 74
0
 49
-2.8999999999999999
 74
0
  0
LTYPE
  5
42
100
AcDbSymbolTableRecord
100
AcDbLinetypeTableRecord
  2
DOTX2
 70
0
  3
Dot (2x) .  .  .  .  .  .  .  .  .  .  .  .  .  .
 72
65
 73
2
 40
12.6999999999999993
 49
0.1
 74
0
 49
-12.5999999999999996
 74
0
  0
LTYPE
  5
43
100
AcDbSymbolTableRecord
100
AcDbLinetypeTableRecord
  2
BORDERX2
 70
0
  3
Border (2x) ____  ____  .  ____  ____  .  ___
 72
65
 73
6
 40
88.8999999999999773
 49
25.3999999999999986
 74
0
 49
-12.6999999999999993
 74
0
 49
25.3999999999999986
 74
0
 49
-12.6499999999999986
 74
0
 49
0.1
 74
0
 49
-12.6499999999999986
 74
0
  0
LTYPE
  5
44
100
AcDbSymbolTableRecord
100
AcDbLinetypeTableRecord
  2
DASHDOTX2
 70
0
  3
Dash dot (2x) ____  .  ____  .  ____  .  ___
 72
65
 73
4
 40
50.7999999999999972
 49
25.3999999999999986
 74
0
 49
-12.6499999999999986
 74
0
 49
0.1
 74
0
 49
-12.6499999999999986
 74
0
  0
LTYPE
  5
45
100
AcDbSymbolTableRecord
100
AcDbLinetypeTableRecord
  2
DIVIDEX2
 70
0
  3
Divide (2x) ________  .  .  ________  .  .  _
 72
65
 73
6
 40
63.5
 49
25.3999999999999986
 74
0
 49
-12.6499999999999986
 74
0
 49
0.1
 74
0
 49
-12.5999999999999979
 74
0
 49
0.1
 74
0
 49
-12.6499999999999986
 74
0
  0
LTYPE
  5
46
100
AcDbSymbolTableRecord
100
AcDbLinetypeTableRecord
  2
ACAD_ISO10W100
 70
0
  3
ISO dash dot __ . __ . __ . __ . __ . __ . __ . 
 72
65
 73
4
 40
18.0
 49
12.0
 74
0
 49
-2.9500000000000002
 74
0
 49
0.1
 74
0
 49
-2.9500000000000002
 74
0
  0
LTYPE
  5
47
100
AcDbSymbolTableRecord
100
AcDbLinetypeTableRecord
  2
ACAD_ISO05W100
 70
0
  3
ISO long-dash double-dot ____ .. ____ .. ____ . 
 72
65
 73
6
 40
33.0000000000000071
 49
24.0
 74
0
 49
-2.9500000000000002
 74
0
 49
0.1
 74
0
 49
-2.9000000000000004
 74
0
 49
0.1
 74
0
 49
-2.9500000000000002
 74
0
  0
LTYPE
  5
48
100
AcDbSymbolTableRecord
100
AcDbLinetypeTableRecord
  2
DIVIDE2
 70
0
  3
Divide (.5x) __..__..__..__..__..__..__..__.._
 72
65
 73
6
 40
15.8749999999999982
 49
6.3499999999999996
 74
0
 49
-3.125
 74
0
 49
0.1
 74
0
 49
-3.0750000000000002
 74
0
 49
0.1
 74
0
 49
-3.125
 74
0
  0
LTYPE
  5
49
100
AcDbSymbolTableRecord
100
AcDbLinetypeTableRecord
  2
DIVIDE
 70
0
  3
Divide ____ . . ____ . . ____ . . ____ . . ____
 72
65
 73
6
 40
31.7500000000000036
 49
12.6999999999999993
 74
0
 49
-6.2999999999999998
 74
0
 49
0.1
 74
0
 49
-6.25
 74
0
 49
0.1
 74
0
 49
-6.2999999999999998
 74
0
  0
LTYPE
  5
15
100
AcDbSymbolTableRecord
100
AcDbLinetypeTableRecord
  2
BYLAYER
 70
0
  3

 72
65
 73
0
 40
0.0
  0
LTYPE
  5
4A
100
AcDbSymbolTableRecord
100
AcDbLinetypeTableRecord
  2
BORDER
 70
0
  3
Border __ __ . __ __ . __ __ . __ __ . __ __ .
 72
65
 73
6
 40
44.4499999999999957
 49
12.6999999999999993
 74
0
 49
-6.3499999999999996
 74
0
 49
12.6999999999999993
 74
0
 49
-6.2999999999999998
 74
0
 49
0.1
 74
0
 49
-6.2999999999999998
 74
0
  0
LTYPE
  5
4B
100
AcDbSymbolTableRecord
100
AcDbLinetypeTableRecord
  2
HIDDEN
 70
0
  3
Hidden __ __ __ __ __ __ __ __ __ __ __ __ __ __
 72
65
 73
2
 40
9.5249999999999986
 49
6.3499999999999996
 74
0
 49
-3.1749999999999998
 74
0
  0
LTYPE
  5
4C
100
AcDbSymbolTableRecord
100
AcDbLinetypeTableRecord
  2
HIDDENX2
 70
0
  3
Hidden (2x) ____ ____ ____ ____ ____ ____ ____ 
 72
65
 73
2
 40
19.0499999999999972
 49
12.6999999999999993
 74
0
 49
-6.3499999999999996
 74
0
  0
LTYPE
  5
4D
100
AcDbSymbolTableRecord
100
AcDbLinetypeTableRecord
  2
CENTER2
 70
0
  3
Center (.5x) ___ _ ___ _ ___ _ ___ _ ___ _ ___
 72
65
 73
4
 40
28.5750000000000028
 49
19.0500000000000007
 74
0
 49
-3.1749999999999998
 74
0
 49
3.1749999999999998
 74
0
 49
-3.1749999999999998
 74
0
  0
LTYPE
  5
14
100
AcDbSymbolTableRecord
100
AcDbLinetypeTableRecord
  2
BYBLOCK
 70
0
  3

 72
65
 73
0
 40
0.0
  0
LTYPE
  5
4E
100
AcDbSymbolTableRecord
100
AcDbLinetypeTableRecord
  2
DASHED2
 70
0
  3
Dashed (.5x) _ _ _ _ _ _ _ _ _ _ _ _ _ _ _ _ _ 
 72
65
 73
2
 40
9.5249999999999986
 49
6.3499999999999996
 74
0
 49
-3.1749999999999998
 74
0
  0
LTYPE
  5
4F
100
AcDbSymbolTableRecord
100
AcDbLinetypeTableRecord
  2
DOT2
 70
0
  3
Dot (.5x) ........................................
 72
65
 73
2
 40
3.1749999999999998
 49
0.1
 74
0
 49
-3.0749999999999997
 74
0
  0
LTYPE
  5
50
100
AcDbSymbolTableRecord
100
AcDbLinetypeTableRecord
  2
BORDER2
 70
0
  3
Border (.5x) __.__.__.__.__.__.__.__.__.__.__.
 72
65
 73
6
 40
22.2250000000000014
 49
6.3499999999999996
 74
0
 49
-3.1749999999999998
 74
0
 49
6.3499999999999996
 74
0
 49
-3.125
 74
0
 49
0.1
 74
0
 49
-3.125
 74
0
  0
LTYPE
  5
51
100
AcDbSymbolTableRecord
100
AcDbLinetypeTableRecord
  2
CENTER
 70
0
  3
Center ____ _ ____ _ ____ _ ____ _ ____ _ ____
 72
65
 73
4
 40
50.8000000000000043
 49
31.75
 74
0
 49
-6.3499999999999996
 74
0
 49
6.3499999999999996
 74
0
 49
-6.3499999999999996
 74
0
  0
LTYPE
  5
52
100
AcDbSymbolTableRecord
100
AcDbLinetypeTableRecord
  2
CENTERX2
 70
0
  3
Center (2x) ________  __  ________  __  _____
 72
65
 73
4
 40
101.6000000000000085
 49
63.5
 74
0
 49
-12.6999999999999993
 74
0
 49
12.6999999999999993
 74
0
 49
-12.6999999999999993
 74
0
  0
LTYPE
  5
53
100
AcDbSymbolTableRecord
100
AcDbLinetypeTableRecord
  2
PHANTOM
 70
0
  3
Phantom ______  __  __  ______  __  __  ______ 
 72
65
 73
6
 40
63.5000000000000071
 49
31.75
 74
0
 49
-6.3499999999999996
 74
0
 49
6.3499999999999996
 74
0
 49
-6.3499999999999996
 74
0
 49
6.3499999999999996
 74
0
 49
-6.3499999999999996
 74
0
  0
LTYPE
  5
54
100
AcDbSymbolTableRecord
100
AcDbLinetypeTableRecord
  2
DASHED
 70
0
  3
Dashed __ __ __ __ __ __ __ __ __ __ __ __ __ _
 72
65
 73
2
 40
19.0499999999999972
 49
12.6999999999999993
 74
0
 49
-6.3499999999999996
 74
0
  0
LTYPE
  5
55
100
AcDbSymbolTableRecord
100
AcDbLinetypeTableRecord
  2
ACAD_ISO14W100
 70
0
  3
ISO dash triple-dot __ . . . __ . . . __ . . . _
 72
65
 73
8
 40
24.0000000000000036
 49
12.0
 74
0
 49
-2.9500000000000002
 74
0
 49
0.1
 74
0
 49
-2.9000000000000004
 74
0
 49
0.1
 74
0
 49
-2.9000000000000004
 74
0
 49
0.1
 74
0
 49
-2.9500000000000002
 74
0
  0
LTYPE
  5
56
100
AcDbSymbolTableRecord
100
AcDbLinetypeTableRecord
  2
PHANTOMX2
 70
0
  3
Phantom (2x) ____________    ____    ____   _
 72
65
 73
6
 40
127.0000000000000142
 49
63.5
 74
0
 49
-12.6999999999999993
 74
0
 49
12.6999999999999993
 74
0
 49
-12.6999999999999993
 74
0
 49
12.6999999999999993
 74
0
 49
-12.6999999999999993
 74
0
  0
ENDTAB
  0
TABLE
  2
LAYER
  5
2
100
AcDbSymbolTable
 70
1
  0
LAYER
  5
10
100
AcDbSymbolTableRecord
100
AcDbLayerTableRecord
  2
0
 70
0
 62
7
420
16777215
  6
Continuous
370
5
390
F
  0
ENDTAB
  0
TABLE
  2
STYLE
  5
3
100
AcDbSymbolTable
 70
1
  0
STYLE
  5
57
100
AcDbSymbolTableRecord
100
AcDbTextStyleTableRecord
  2
Standard
 70
0
 40
0.0
 41
1.0
 50
0.0
 71
0
 42
2.5
  3

  4

1001
ACAD
1000
txt
1071
0
  0
ENDTAB
  0
TABLE
  2
VIEW
  5
6
100
AcDbSymbolTable
 70
0
  0
ENDTAB
  0
TABLE
  2
UCS
  5
7
100
AcDbSymbolTable
 70
0
  0
ENDTAB
  0
TABLE
  2
APPID
  5
9
100
AcDbSymbolTable
 70
1
  0
APPID
  5
12
100
AcDbSymbolTableRecord
100
AcDbRegAppTableRecord
  2
ACAD
 70
0
  0
APPID
  5
58
100
AcDbSymbolTableRecord
100
AcDbRegAppTableRecord
  2
QCAD
 70
0
  0
ENDTAB
  0
TABLE
  2
DIMSTYLE
  5
A
100
AcDbSymbolTable
 70
1
100
AcDbDimStyleTable
 71
0
  0
DIMSTYLE
105
27
100
AcDbSymbolTableRecord
100
AcDbDimStyleTableRecord
  2
Standard
 41
0.18
 42
0.0625
 43
3.75
 44
0.18
 70
0
 73
0
 74
0
 77
0
 78
8
140
0.18
141
2.5
143
0.03937007874016
147
0.09
171
3
172
1
271
2
272
2
274
3
278
44
283
0
284
8
340
57
  0
ENDTAB
  0
TABLE
  2
BLOCK_RECORD
  5
1
100
AcDbSymbolTable
 70
1
  0
BLOCK_RECORD
  5
1F
100
AcDbSymbolTableRecord
100
AcDbBlockTableRecord
  2
*Model_Space
340
22
  0
BLOCK_RECORD
  5
1B
100
AcDbSymbolTableRecord
100
AcDbBlockTableRecord
  2
*Paper_Space
340
1E
  0
BLOCK_RECORD
  5
23
100
AcDbSymbolTableRecord
100
AcDbBlockTableRecord
  2
*Paper_Space0
340
26
  0
ENDTAB
  0
ENDSEC
  0
SECTION
  2
BLOCKS
  0
BLOCK
  5
20
100
AcDbEntity
  8
0
100
AcDbBlockBegin
  2
*Model_Space
 70
0
 10
0.0
 20
0.0
 30
0.0
  3
*Model_Space
  1

  0
ENDBLK
  5
21
100
AcDbEntity
  8
0
100
AcDbBlockEnd
  0
BLOCK
  5
1C
100
AcDbEntity
 67
1
  8
0
100
AcDbBlockBegin
  2
*Paper_Space
 70
0
 10
0.0
 20
0.0
 30
0.0
  3
*Paper_Space
  1

  0
ENDBLK
  5
1D
100
AcDbEntity
 67
1
  8
0
100
AcDbBlockEnd
  0
BLOCK
  5
24
100
AcDbEntity
  8
0
100
AcDbBlockBegin
  2
*Paper_Space0
 70
0
 10
0.0
 20
0.0
 30
0.0
  3
*Paper_Space0
  1

  0
ENDBLK
  5
25
100
AcDbEntity
  8
0
100
AcDbBlockEnd
  0
ENDSEC
  0
SECTION
  2
ENTITIES
  0
ARC
  5
59
100
AcDbEntity
  8
0
 62
256
370
-1
 48
1.0
  6
BYLAYER
100
AcDbCircle
 10
2.0
 20
1.9999999999999984
 30
0.0
 40
1.9999999999999993
100
AcDbArc
 50
180.0
 51
270.0
  0
LINE
  5
5A
100
AcDbEntity
  8
0
 62
256
370
-1
 48
1.0
  6
BYLAYER
100
AcDbLine
 10
1.9999999999999998
 20
-0.0000000000000006
 30
0.0
 11
126.1200000000000045
 21
0.0000000000000089
 31
0.0
  0
ARC
  5
5B
100
AcDbEntity
  8
0
 62
256
370
-1
 48
1.0
  6
BYLAYER
100
AcDbCircle
 10
126.120000000000033
 20
1.9999999999999787
 30
0.0
 40
1.9999999999999698
100
AcDbArc
 50
269.9999999999992042
 51
0.0
  0
ARC
  5
5C
100
AcDbEntity
  8
0
 62
256
370
-1
 48
1.0
  6
BYLAYER
100
AcDbCircle
 10
126.1200000000000045
 20
35.9500000000000171
 30
0.0
 40
1.9999999999999873
100
AcDbArc
 50
360.0
 51
89.9999999999995879
  0
ARC
  5
5D
100
AcDbEntity
  8
0
 62
256
370
-1
 48
1.0
  6
BYLAYER
100
AcDbCircle
 10
2.0000000000000009
 20
35.9500000000000028
 30
0.0
 40
1.9999999999999987
100
AcDbArc
 50
90.0000000000002132
 51
180.0
  0
ARC
  5
5E
100
AcDbEntity
  8
0
 62
256
370
-1
 48
1.0
  6
BYLAYER
100
AcDbCircle
 10
1.9223645744727649
 20
86.5757312210764951
 30
0.0
 40
1.9999999999999987
100
AcDbArc
 50
180.0
 51
270.0000000000000568
  0
ARC
  5
5F
100
AcDbEntity
  8
0
 62
256
370
-1
 48
1.0
  6
BYLAYER
100
AcDbCircle
 10
126.0423645744727992
 20
86.5757312210764667
 30
0.0
 40
1.9999999999999745
100
AcDbArc
 50
269.9999999999992042
 51
0.0
  0
ARC
  5
60
100
AcDbEntity
  8
0
 62
256
370
-1
 48
1.0
  6
BYLAYER
100
AcDbCircle
 10
126.0423645744727708
 20
120.5257312210764979
 30
0.0
 40
1.9999999999999911
100
AcDbArc
 50
360.0
 51
89.9999999999995879
  0
ARC
  5
61
100
AcDbEntity
  8
0
 62
256
370
-1
 48
1.0
  6
BYLAYER
100
AcDbCircle
 10
1.9223645744727658
 20
120.5257312210764979
 30
0.0
 40
1.9999999999999998
100
AcDbArc
 50
90.000000000000199
 51
180.0
  0
LINE
  5
62
100
AcDbEntity
  8
0
 62
256
370
-1
 48
1.0
  6
BYLAYER
100
AcDbLine
 10
78.4379904127384151
 20
10.9470904778957294
 30
0.0
 11
78.4379904127384151
 21
29.7970000000000077
 31
0.0
  0
LINE
  5
63
100
AcDbEntity
  8
0
 62
256
370
-1
 48
1.0
  6
BYLAYER
100
AcDbLine
 10
58.9110000000000156
 20
29.7970000000000077
 30
0.0
 11
58.911000196632088
 21
10.9470904778957294
 31
0.0
  0
LINE
  5
64
100
AcDbEntity
  8
0
 62
256
370
-1
 48
1.0
  6
BYLAYER
100
AcDbLine
 10
78.3603549872111813
 20
95.5228216989722227
 30
0.0
 11
78.3603549872111813
 21
114.3727312210765064
 31
0.0
  0
LINE
  5
65
100
AcDbEntity
  8
0
 62
256
370
-1
 48
1.0
  6
BYLAYER
100
AcDbLine
 10
58.8333645744727818
 20
114.3727312210765064
 30
0.0
 11
58.8333647711048542
 21
95.5228216989722227
 31
0.0
  0
LINE
  5
66
100
AcDbEntity
  8
0
 62
256
370
-1
 48
1.0
  6
BYLAYER
100
AcDbLine
 10
83.8200000000000216
 20
7.4700000000000344
 30
0.0
 11
83.8200000000000216
 21
2.5400000000000489
 31
0.0
  0
LINE
  5
67
100
AcDbEntity
  8
0
 62
256
370
-1
 48
1.0
  6
BYLAYER
100
AcDbLine
 10
83.8200000000000216
 20
2.5400000000000489
 30
0.0
 11
83.8200000000000216
 21
7.4700000000000344
 31
0.0
  0
LINE
  5
68
100
AcDbEntity
  8
0
 62
256
370
-1
 48
1.0
  6
BYLAYER
100
AcDbLine
 10
83.7423645744727878
 20
92.0457312210765224
 30
0.0
 11
83.7423645744727878
 21
87.115731221076544
 31
0.0
  0
LINE
  5
69
100
AcDbEntity
  8
0
 62
256
370
-1
 48
1.0
  6
BYLAYER
100
AcDbLine
 10
83.7423645744727878
 20
87.115731221076544
 30
0.0
 11
83.7423645744727878
 21
92.0457312210765224
 31
0.0
  0
LINE
  5
6A
100
AcDbEntity
  8
0
 62
256
370
-1
 48
1.0
  6
BYLAYER
100
AcDbLine
 10
82.0669999999999931
 20
29.7970000000000041
 30
0.0
 11
82.0669999999999931
 21
10.9470000000000169
 31
0.0
  0
LINE
  5
6B
100
AcDbEntity
  8
0
 62
256
370
-1
 48
1.0
  6
BYLAYER
100
AcDbLine
 10
100.9170000000000158
 20
10.946999480140434
 30
0.0
 11
100.9170000000000016
 21
29.7969999999999935
 31
0.0
  0
LINE
  5
6C
100
AcDbEntity
  8
0
 62
256
370
-1
 48
1.0
  6
BYLAYER
100
AcDbLine
 10
81.9893645744727593
 20
114.3727312210764921
 30
0.0
 11
81.9893645744727593
 21
95.522731221076512
 31
0.0
  0
LINE
  5
6D
100
AcDbEntity
  8
0
 62
256
370
-1
 48
1.0
  6
BYLAYER
100
AcDbLine
 10
100.839364574472782
 20
95.5227307012169291
 30
0.0
 11
100.8393645744727678
 21
114.3727312210764921
 31
0.0
  0
LINE
  5
6E
100
AcDbEntity
  8
0
 62
256
370
-1
 48
1.0
  6
BYLAYER
100
AcDbLine
 10
123.0149999999999864
 20
10.945000000000018
 30
0.0
 11
123.0149999999999864
 21
29.7970000000000113
 31
0.0
  0
LINE
  5
6F
100
AcDbEntity
  8
0
 62
256
370
-1
 48
1.0
  6
BYLAYER
100
AcDbLine
 10
122.9373645744727526
 20
95.5207312210765167
 30
0.0
 11
122.9373645744727526
 21
114.3727312210765064
 31
0.0
  0
LINE
  5
70
100
AcDbEntity
  8
0
 62
256
370
-1
 48
1.0
  6
BYLAYER
100
AcDbLine
 10
104.1650000000000063
 20
29.7970000000000113
 30
0.0
 11
104.1649950500531077
 21
10.9470000000000347
 31
0.0
  0
LINE
  5
71
100
AcDbEntity
  8
0
 62
256
370
-1
 48
1.0
  6
BYLAYER
100
AcDbLine
 10
104.0873645744727725
 20
114.3727312210765064
 30
0.0
 11
104.0873596245258739
 21
95.5227312210765263
 31
0.0
  0
LINE
  5
72
100
AcDbEntity
  8
0
 62
256
370
-1
 48
1.0
  6
BYLAYER
100
AcDbLine
 10
98.910000000000025
 20
2.5400000000000489
 30
0.0
 11
98.910000000000025
 21
7.4700000000000344
 31
0.0
  0
LINE
  5
73
100
AcDbEntity
  8
0
 62
256
370
-1
 48
1.0
  6
BYLAYER
100
AcDbLine
 10
98.910000000000025
 20
7.4700000000000344
 30
0.0
 11
98.910000000000025
 21
2.5400000000000489
 31
0.0
  0
LINE
  5
74
100
AcDbEntity
  8
0
 62
256
370
-1
 48
1.0
  6
BYLAYER
100
AcDbLine
 10
98.8323645744727912
 20
87.115731221076544
 30
0.0
 11
98.8323645744727912
 21
92.0457312210765224
 31
0.0
  0
LINE
  5
75
100
AcDbEntity
  8
0
 62
256
370
-1
 48
1.0
  6
BYLAYER
100
AcDbLine
 10
98.8323645744727912
 20
92.0457312210765224
 30
0.0
 11
98.8323645744727912
 21
87.115731221076544
 31
0.0
  0
LWPOLYLINE
  5
76
100
AcDbEntity
  8
0
 62
256
370
-1
 48
1.0
  6
BYLAYER
100
AcDbPolyline
 90
2
 70
129
 10
4.2692534732113678
 20
34.9465390179677797
 42
0.9999999999999999
 10
2.0692535223851993
 20
34.9465390179677797
 42
0.9999999999999999
  0
LWPOLYLINE
  5
77
100
AcDbEntity
  8
0
 62
256
370
-1
 48
1.0
  6
BYLAYER
100
AcDbPolyline
 90
2
 70
129
 10
4.1916180476841305
 20
119.5222702390442748
 42
0.9999999999999999
 10
1.9916180968579624
 20
119.5222702390442748
 42
0.9999999999999999
  0
LWPOLYLINE
  5
78
100
AcDbEntity
  8
0
 62
256
370
-1
 48
1.0
  6
BYLAYER
100
AcDbPolyline
 90
2
 70
129
 10
4.2650309853812587
 20
3.1670262475331059
 42
0.9999999999999999
 10
2.0650309853812576
 20
3.1670262475331059
 42
0.9999999999999999
  0
LWPOLYLINE
  5
79
100
AcDbEntity
  8
0
 62
256
370
-1
 48
1.0
  6
BYLAYER
100
AcDbPolyline
 90
2
 70
129
 10
4.187395559854024
 20
87.7427574686095966
 42
0.9999999999999999
 10
1.9873955598540229
 20
87.7427574686095966
 42
0.9999999999999999
  0
LWPOLYLINE
  5
7A
100
AcDbEntity
  8
0
 62
256
370
-1
 48
1.0
  6
BYLAYER
100
AcDbPolyline
 90
2
 70
129
 10
126.0113643974259503
 20
34.7533659198357654
 42
0.9999999999999999
 10
123.8113643974259617
 20
34.7533659198357654
 42
0.9999999999999999
  0
LWPOLYLINE
  5
7B
100
AcDbEntity
  8
0
 62
256
370
-1
 48
1.0
  6
BYLAYER
100
AcDbPolyline
 90
2
 70
129
 10
125.9337289718987165
 20
119.3290971409122676
 42
0.9999999999999999
 10
123.7337289718987279
 20
119.3290971409122676
 42
0.9999999999999999
  0
LWPOLYLINE
  5
7C
100
AcDbEntity
  8
0
 62
256
370
-1
 48
1.0
  6
BYLAYER
100
AcDbPolyline
 90
2
 70
129
 10
126.0771372309692708
 20
3.2221875513296778
 42
0.9999999999999999
 10
123.8771372309692822
 20
3.2221875513296778
 42
0.9999999999999999
  0
LWPOLYLINE
  5
7D
100
AcDbEntity
  8
0
 62
256
370
-1
 48
1.0
  6
BYLAYER
100
AcDbPolyline
 90
2
 70
129
 10
125.999501805442037
 20
87.7979187724061774
 42
0.9999999999999999
 10
123.7995018054420484
 20
87.7979187724061774
 42
0.9999999999999999
  0
ARC
  5
7E
100
AcDbEntity
  8
0
 62
256
370
-1
 48
1.0
  6
BYLAYER
100
AcDbCircle
 10
126.1200000000000045
 20
77.9500000000000313
 30
0.0
 40
1.9999999999999927
100
AcDbArc
 50
360.0
 51
89.9999999999995879
  0
ARC
  5
7F
100
AcDbEntity
  8
0
 62
256
370
-1
 48
1.0
  6
BYLAYER
100
AcDbCircle
 10
2.0000000000031135
 20
77.9499999999998323
 30
0.0
 40
1.9999999999999933
100
AcDbArc
 50
89.9999999999999432
 51
180.0
  0
ARC
  5
80
100
AcDbEntity
  8
0
 62
256
370
-1
 48
1.0
  6
BYLAYER
100
AcDbCircle
 10
2.0000000000003268
 20
44.000000000000405
 30
0.0
 40
2.0000000000000049
100
AcDbArc
 50
180.0
 51
269.9999999999997726
  0
ARC
  5
81
100
AcDbEntity
  8
0
 62
256
370
-1
 48
1.0
  6
BYLAYER
100
AcDbCircle
 10
126.1200000000000045
 20
44.0000000000002061
 30
0.0
 40
1.9999999999999671
100
AcDbArc
 50
270.0
 51
0.0
  0
ARC
  5
82
100
AcDbEntity
  8
0
 62
256
370
-1
 48
1.0
  6
BYLAYER
100
AcDbCircle
 10
126.0423645744727708
 20
162.5257312210765122
 30
0.0
 40
1.9999999999999927
100
AcDbArc
 50
0.0
 51
89.9999999999995879
  0
ARC
  5
83
100
AcDbEntity
  8
0
 62
256
370
-1
 48
1.0
  6
BYLAYER
100
AcDbCircle
 10
1.922364574475881
 20
162.5257312210763416
 30
0.0
 40
1.9999999999999887
100
AcDbArc
 50
90.0000000000000853
 51
180.0
  0
ARC
  5
84
100
AcDbEntity
  8
0
 62
256
370
-1
 48
1.0
  6
BYLAYER
100
AcDbCircle
 10
1.9223645744730968
 20
128.575731221076893
 30
0.0
 40
2.0000000000000036
100
AcDbArc
 50
180.0
 51
269.9999999999996589
  0
ARC
  5
85
100
AcDbEntity
  8
0
 62
256
370
-1
 48
1.0
  6
BYLAYER
100
AcDbCircle
 10
126.042364574472785
 20
128.5757312210766941
 30
0.0
 40
1.9999999999999598
100
AcDbArc
 50
269.9999999999996021
 51
0.0
  0
LWPOLYLINE
  5
86
100
AcDbEntity
  8
0
 62
256
370
-1
 48
1.0
  6
BYLAYER
100
AcDbPolyline
 90
2
 70
129
 10
4.2650309853812587
 20
45.1670262475331086
 42
0.9999999999999999
 10
2.0650309853812576
 20
45.1670262475331086
 42
0.9999999999999999
  0
LWPOLYLINE
  5
87
100
AcDbEntity
  8
0
 62
256
370
-1
 48
1.0
  6
BYLAYER
100
AcDbPolyline
 90
2
 70
129
 10
4.187395559854024
 20
129.7427574686095966
 42
0.9999999999999999
 10
1.9873955598540229
 20
129.7427574686095966
 42
0.9999999999999999
  0
LWPOLYLINE
  5
88
100
AcDbEntity
  8
0
 62
256
370
-1
 48
1.0
  6
BYLAYER
100
AcDbPolyline
 90
2
 70
129
 10
126.0771372309692708
 20
45.2221875513296823
 42
0.9999999999999999
 10
123.8771372309692822
 20
45.2221875513296823
 42
0.9999999999999999
  0
LWPOLYLINE
  5
89
100
AcDbEntity
  8
0
 62
256
370
-1
 48
1.0
  6
BYLAYER
100
AcDbPolyline
 90
2
 70
129
 10
125.999501805442037
 20
129.7979187724061774
 42
0.9999999999999999
 10
123.7995018054420484
 20
129.7979187724061774
 42
0.9999999999999999
  0
LWPOLYLINE
  5
8A
100
AcDbEntity
  8
0
 62
256
370
-1
 48
1.0
  6
BYLAYER
100
AcDbPolyline
 90
2
 70
129
 10
4.2692534732113678
 20
76.9465390179677797
 42
0.9999999999999999
 10
2.0692535223851993
 20
76.9465390179677797
 42
0.9999999999999999
  0
LWPOLYLINE
  5
8B
100
AcDbEntity
  8
0
 62
256
370
-1
 48
1.0
  6
BYLAYER
100
AcDbPolyline
 90
2
 70
129
 10
4.1916180476841305
 20
161.5222702390442748
 42
0.9999999999999999
 10
1.9916180968579624
 20
161.5222702390442748
 42
0.9999999999999999
  0
LWPOLYLINE
  5
8C
100
AcDbEntity
  8
0
 62
256
370
-1
 48
1.0
  6
BYLAYER
100
AcDbPolyline
 90
2
 70
129
 10
126.0113643974259503
 20
76.7533659198357725
 42
0.9999999999999999
 10
123.8113643974259617
 20
76.7533659198357725
 42
0.9999999999999999
  0
LWPOLYLINE
  5
8D
100
AcDbEntity
  8
0
 62
256
370
-1
 48
1.0
  6
BYLAYER
100
AcDbPolyline
 90
2
 70
129
 10
125.9337289718987165
 20
161.3290971409122676
 42
0.9999999999999999
 10
123.7337289718987279
 20
161.3290971409122676
 42
0.9999999999999999
  0
LWPOLYLINE
  5
8E
100
AcDbEntity
  8
0
 62
256
370
-1
 48
1.0
  6
BYLAYER
100
AcDbPolyline
 90
2
 70
129
 10
12.5
 20
13.5
 42
0.9999999999999999
 10
10.5
 20
13.5
 42
0.9999999999999999
  0
LWPOLYLINE
  5
8F
100
AcDbEntity
  8
0
 62
256
370
-1
 48
1.0
  6
BYLAYER
100
AcDbPolyline
 90
2
 70
129
 10
12.4223645744727662
 20
98.0757312210764951
 42
0.9999999999999999
 10
10.4223645744727662
 20
98.0757312210764951
 42
0.9999999999999999
  0
LINE
  5
90
100
AcDbEntity
  8
0
 62
256
370
-1
 48
1.0
  6
BYLAYER
100
AcDbLine
 10
0.0000000000000007
 20
1.9999999999999987
 30
0.0
 11
0.0000000000000022
 21
35.9500000000000028
 31
0.0
  0
LINE
  5
91
100
AcDbEntity
  8
0
 62
256
370
-1
 48
1.0
  6
BYLAYER
100
AcDbLine
 10
1.9999999999999931
 20
37.9500000000000028
 30
0.0
 11
126.1200000000000188
 21
37.9500000000000028
 31
0.0
  0
LINE
  5
92
100
AcDbEntity
  8
0
 62
256
370
-1
 48
1.0
  6
BYLAYER
100
AcDbLine
 10
128.1200000000000045
 20
35.9500000000000171
 30
0.0
 11
128.1200000000000045
 21
1.9999999999999787
 31
0.0
  0
LINE
  5
93
100
AcDbEntity
  8
0
 62
256
370
-1
 48
1.0
  6
BYLAYER
100
AcDbLine
 10
58.9110000000000156
 20
29.7970000000000077
 30
0.0
 11
78.4379904127384151
 21
29.7970000000000077
 31
0.0
  0
LINE
  5
94
100
AcDbEntity
  8
0
 62
256
370
-1
 48
1.0
  6
BYLAYER
100
AcDbLine
 10
82.0669999999999931
 20
29.7970000000000041
 30
0.0
 11
100.9170000000000016
 21
29.7969999999999935
 31
0.0
  0
LINE
  5
95
100
AcDbEntity
  8
0
 62
256
370
-1
 48
1.0
  6
BYLAYER
100
AcDbLine
 10
104.1650000000000063
 20
29.7970000000000113
 30
0.0
 11
123.0149999999999864
 21
29.7970000000000113
 31
0.0
  0
LINE
  5
96
100
AcDbEntity
  8
0
 62
256
370
-1
 48
1.0
  6
BYLAYER
100
AcDbLine
 10
58.911000196632088
 20
10.9470904778957294
 30
0.0
 11
78.4379904127384151
 21
10.9470904778957294
 31
0.0
  0
LINE
  5
97
100
AcDbEntity
  8
0
 62
256
370
-1
 48
1.0
  6
BYLAYER
100
AcDbLine
 10
82.0669999999999931
 20
10.9470000000000169
 30
0.0
 11
100.9170000000000158
 21
10.946999480140434
 31
0.0
  0
LINE
  5
98
100
AcDbEntity
  8
0
 62
256
370
-1
 48
1.0
  6
BYLAYER
100
AcDbLine
 10
104.1649950500531077
 20
10.9470000000000347
 30
0.0
 11
123.0149999999999864
 21
10.945000000000018
 31
0.0
  0
LINE
  5
99
100
AcDbEntity
  8
0
 62
256
370
-1
 48
1.0
  6
BYLAYER
100
AcDbLine
 10
83.8200000000000216
 20
7.4700000000000344
 30
0.0
 11
98.910000000000025
 21
7.4700000000000344
 31
0.0
  0
LINE
  5
9A
100
AcDbEntity
  8
0
 62
256
370
-1
 48
1.0
  6
BYLAYER
100
AcDbLine
 10
83.8200000000000216
 20
2.5400000000000489
 30
0.0
 11
98.910000000000025
 21
2.5400000000000489
 31
0.0
  0
LINE
  5
9B
100
AcDbEntity
  8
0
 62
256
370
-1
 48
1.0
  6
BYLAYER
100
AcDbLine
 10
0.0000000000031202
 20
77.9499999999998323
 30
0.0
 11
0.000000000000322
 21
44.000000000000405
 31
0.0
  0
LINE
  5
9C
100
AcDbEntity
  8
0
 62
256
370
-1
 48
1.0
  6
BYLAYER
100
AcDbLine
 10
2.0000000000003175
 20
42.0000000000003979
 30
0.0
 11
126.1200000000000045
 21
42.0000000000002416
 31
0.0
  0
LINE
  5
9D
100
AcDbEntity
  8
0
 62
256
370
-1
 48
1.0
  6
BYLAYER
100
AcDbLine
 10
128.1199999999999761
 20
44.0000000000002061
 30
0.0
 11
128.1200000000000045
 21
77.9500000000000313
 31
0.0
  0
LINE
  5
9E
100
AcDbEntity
  8
0
 62
256
370
-1
 48
1.0
  6
BYLAYER
100
AcDbLine
 10
126.1200000000000188
 20
79.9500000000000171
 30
0.0
 11
2.0000000000031157
 21
79.9499999999998323
 31
0.0
  0
LINE
  5
9F
100
AcDbEntity
  8
0
 62
256
370
-1
 48
1.0
  6
BYLAYER
100
AcDbLine
 10
-0.077635425527234
 20
120.5257312210764979
 30
0.0
 11
-0.0776354255272338
 21
86.5757312210764951
 31
0.0
  0
LINE
  5
A0
100
AcDbEntity
  8
0
 62
256
370
-1
 48
1.0
  6
BYLAYER
100
AcDbLine
 10
1.9223645744727662
 20
84.5757312210764951
 30
0.0
 11
126.0423645744727708
 21
84.5757312210764951
 31
0.0
  0
LINE
  5
A1
100
AcDbEntity
  8
0
 62
256
370
-1
 48
1.0
  6
BYLAYER
100
AcDbLine
 10
128.0423645744727708
 20
86.5757312210764667
 30
0.0
 11
128.0423645744727708
 21
120.5257312210764979
 31
0.0
  0
LINE
  5
A2
100
AcDbEntity
  8
0
 62
256
370
-1
 48
1.0
  6
BYLAYER
100
AcDbLine
 10
126.042364574472785
 20
122.5257312210764837
 30
0.0
 11
1.9223645744727593
 21
122.5257312210764979
 31
0.0
  0
LINE
  5
A3
100
AcDbEntity
  8
0
 62
256
370
-1
 48
1.0
  6
BYLAYER
100
AcDbLine
 10
58.8333645744727818
 20
114.3727312210765064
 30
0.0
 11
78.3603549872111813
 21
114.3727312210765064
 31
0.0
  0
LINE
  5
A4
100
AcDbEntity
  8
0
 62
256
370
-1
 48
1.0
  6
BYLAYER
100
AcDbLine
 10
81.9893645744727593
 20
114.3727312210764921
 30
0.0
 11
100.8393645744727678
 21
114.3727312210764921
 31
0.0
  0
LINE
  5
A5
100
AcDbEntity
  8
0
 62
256
370
-1
 48
1.0
  6
BYLAYER
100
AcDbLine
 10
104.0873645744727725
 20
114.3727312210765064
 30
0.0
 11
122.9373645744727526
 21
114.3727312210765064
 31
0.0
  0
LINE
  5
A6
100
AcDbEntity
  8
0
 62
256
370
-1
 48
1.0
  6
BYLAYER
100
AcDbLine
 10
122.9373645744727526
 20
95.5207312210765167
 30
0.0
 11
104.0873596245258739
 21
95.5227312210765263
 31
0.0
  0
LINE
  5
A7
100
AcDbEntity
  8
0
 62
256
370
-1
 48
1.0
  6
BYLAYER
100
AcDbLine
 10
100.839364574472782
 20
95.5227307012169291
 30
0.0
 11
81.9893645744727593
 21
95.522731221076512
 31
0.0
  0
LINE
  5
A8
100
AcDbEntity
  8
0
 62
256
370
-1
 48
1.0
  6
BYLAYER
100
AcDbLine
 10
78.3603549872111813
 20
95.5228216989722227
 30
0.0
 11
58.8333647711048542
 21
95.5228216989722227
 31
0.0
  0
LINE
  5
A9
100
AcDbEntity
  8
0
 62
256
370
-1
 48
1.0
  6
BYLAYER
100
AcDbLine
 10
83.7423645744727878
 20
92.0457312210765224
 30
0.0
 11
98.8323645744727912
 21
92.0457312210765224
 31
0.0
  0
LINE
  5
AA
100
AcDbEntity
  8
0
 62
256
370
-1
 48
1.0
  6
BYLAYER
100
AcDbLine
 10
83.7423645744727878
 20
87.115731221076544
 30
0.0
 11
98.8323645744727912
 21
87.115731221076544
 31
0.0
  0
LINE
  5
AB
100
AcDbEntity
  8
0
 62
256
370
-1
 48
1.0
  6
BYLAYER
100
AcDbLine
 10
1.9223645744758786
 20
164.5257312210763416
 30
0.0
 11
126.042364574472785
 21
164.5257312210765122
 31
0.0
  0
LINE
  5
AC
100
AcDbEntity
  8
0
 62
256
370
-1
 48
1.0
  6
BYLAYER
100
AcDbLine
 10
128.0423645744727708
 20
162.5257312210765122
 30
0.0
 11
128.0423645744727423
 21
128.5757312210766941
 31
0.0
  0
LINE
  5
AD
100
AcDbEntity
  8
0
 62
256
370
-1
 48
1.0
  6
BYLAYER
100
AcDbLine
 10
126.0423645744727708
 20
126.5757312210767367
 30
0.0
 11
1.9223645744730857
 21
126.575731221076893
 31
0.0
  0
LINE
  5
AE
100
AcDbEntity
  8
0
 62
256
370
-1
 48
1.0
  6
BYLAYER
100
AcDbLine
 10
-0.0776354255269067
 20
128.575731221076893
 30
0.0
 11
-0.0776354255241076
 21
162.5257312210763416
 31
0.0
  0
ENDSEC
  0
SECTION
  2
OBJECTS
  0
DICTIONARY
  5
C
100
AcDbDictionary
280
0
281
1
  3
ACAD_GROUP
350
D
  3
ACAD_LAYOUT
350
1A
  3
ACAD_MLINESTYLE
350
17
  3
ACAD_PLOTSETTINGS
350
19
  3
ACAD_PLOTSTYLENAME
350
E
  3
AcDbVariableDictionary
350
AF
  3
QCAD_OBJECTS
350
B0
  0
DICTIONARY
  5
D
100
AcDbDictionary
280
0
281
1
  0
ACDBDICTIONARYWDFLT
  5
E
100
AcDbDictionary
281
1
  3
Normal
350
F
100
AcDbDictionaryWithDefault
340
F
  0
ACDBPLACEHOLDER
  5
F
  0
DICTIONARY
  5
17
100
AcDbDictionary
280
0
281
1
  3
Standard
350
18
  0
MLINESTYLE
  5
18
100
AcDbMlineStyle
  2
STANDARD
 70
0
  3

 62
256
 51
90.0
 52
90.0
 71
2
 49
0.5
 62
256
  6
BYLAYER
 49
-0.5
 62
256
  6
BYLAYER
  0
DICTIONARY
  5
19
100
AcDbDictionary
280
0
281
1
  0
DICTIONARY
  5
1A
100
AcDbDictionary
281
1
  3
Layout1
350
1E
  3
Layout2
350
26
  3
Model
350
22
  0
LAYOUT
  5
1E
100
AcDbPlotSettings
  1

  2
none_device
  4

  6

 40
0.0
 41
0.0
 42
0.0
 43
0.0
 44
0.0
 45
0.0
 46
0.0
 47
0.0
 48
0.0
 49
0.0
140
0.0
141
0.0
142
1.0
143
1.0
 70
688
 72
0
 73
0
 74
5
  7

 75
16
147
1.0
148
0.0
149
0.0
100
AcDbLayout
  1
Layout1
 70
1
 71
1
 10
0.0
 20
0.0
 11
420.0
 21
297.0
 12
0.0
 22
0.0
 32
0.0
 14
100000000000000000000.0
 24
100000000000000000000.0
 34
100000000000000000000.0
 15
-100000000000000000000.0
 25
-100000000000000000000.0
 35
-100000000000000000000.0
146
0.0
 13
0.0
 23
0.0
 33
0.0
 16
1.0
 26
0.0
 36
0.0
 17
0.0
 27
1.0
 37
0.0
 76
0
330
1B
  0
LAYOUT
  5
22
100
AcDbPlotSettings
  1

  2
none_device
  4

  6

 40
0.0
 41
0.0
 42
0.0
 43
0.0
 44
0.0
 45
0.0
 46
0.0
 47
0.0
 48
0.0
 49
0.0
140
0.0
141
0.0
142
1.0
143
1.0
 70
1712
 72
0
 73
0
 74
0
  7

 75
0
147
1.0
148
0.0
149
0.0
100
AcDbLayout
  1
Model
 70
1
 71
0
 10
0.0
 20
0.0
 11
12.0
 21
9.0
 12
0.0
 22
0.0
 32
0.0
 14
0.0
 24
0.0
 34
0.0
 15
0.0
 25
0.0
 35
0.0
146
0.0
 13
0.0
 23
0.0
 33
0.0
 16
1.0
 26
0.0
 36
0.0
 17
0.0
 27
1.0
 37
0.0
 76
0
330
1F
  0
LAYOUT
  5
26
100
AcDbPlotSettings
  1

  2
none_device
  4

  6

 40
0.0
 41
0.0
 42
0.0
 43
0.0
 44
0.0
 45
0.0
 46
0.0
 47
0.0
 48
0.0
 49
0.0
140
0.0
141
0.0
142
1.0
143
1.0
 70
688
 72
0
 73
0
 74
5
  7

 75
16
147
1.0
148
0.0
149
0.0
100
AcDbLayout
  1
Layout2
 70
1
 71
2
 10
0.0
 20
0.0
 11
12.0
 21
9.0
 12
0.0
 22
0.0
 32
0.0
 14
0.0
 24
0.0
 34
0.0
 15
0.0
 25
0.0
 35
0.0
146
0.0
 13
0.0
 23
0.0
 33
0.0
 16
1.0
 26
0.0
 36
0.0
 17
0.0
 27
1.0
 37
0.0
 76
0
330
23
  0
DICTIONARY
  5
AF
100
AcDbDictionary
281
1
  3
DIMASSOC
350
B2
  3
HIDETEXT
350
B1
  0
DICTIONARYVAR
  5
B1
100
DictionaryVariables
280
0
  1
2
  0
DICTIONARYVAR
  5
B2
100
DictionaryVariables
280
0
  1
1
  0
DICTIONARY
  5
B0
100
AcDbDictionary
281
1
  3
ColorSettings/BackgroundColor
350
B3
  3
ColorSettings/ColorMode
350
B4
  3
Grid/DisplayGrid00
350
B5
  3
Grid/DisplayGrid01
350
B6
  3
Grid/DisplayGrid02
350
B7
  3
Grid/DisplayGrid03
350
B8
  3
Grid/GridSpacingX00
350
B9
  3
Grid/GridSpacingX01
350
BA
  3
Grid/GridSpacingX02
350
BB
  3
Grid/GridSpacingX03
350
BC
  3
Grid/GridSpacingY00
350
BD
  3
Grid/GridSpacingY01
350
BE
  3
Grid/GridSpacingY02
350
BF
  3
Grid/GridSpacingY03
350
C0
  3
Grid/IsometricGrid00
350
C1
  3
Grid/IsometricGrid01
350
C2
  3
Grid/IsometricGrid02
350
C3
  3
Grid/IsometricGrid03
350
C4
  3
Grid/IsometricProjection00
350
C5
  3
Grid/IsometricProjection01
350
C6
  3
Grid/IsometricProjection02
350
C7
  3
Grid/IsometricProjection03
350
C8
  3
Grid/MetaGridSpacingX00
350
C9
  3
Grid/MetaGridSpacingX01
350
CA
  3
Grid/MetaGridSpacingX02
350
CB
  3
Grid/MetaGridSpacingX03
350
CC
  3
Grid/MetaGridSpacingY00
350
CD
  3
Grid/MetaGridSpacingY01
350
CE
  3
Grid/MetaGridSpacingY02
350
CF
  3
Grid/MetaGridSpacingY03
350
D0
  3
MultiPageSettings/Columns
350
D1
  3
MultiPageSettings/GlueMarginsBottom
350
D2
  3
MultiPageSettings/GlueMarginsLeft
350
D3
  3
MultiPageSettings/GlueMarginsRight
350
D4
  3
MultiPageSettings/GlueMarginsTop
350
D5
  3
MultiPageSettings/PrintCropMarks
350
D6
  3
MultiPageSettings/Rows
350
D7
  3
PageSettings/OffsetX
350
D8
  3
PageSettings/OffsetY
350
D9
  3
PageSettings/PageOrientation
350
DA
  3
PageSettings/PaperHeight
350
DB
  3
PageSettings/PaperWidth
350
DC
  3
PageSettings/Scale
350
DD
  3
PageSettings/ShowPaperBorders
350
DE
  3
PageTagSettings/EnablePageTags
350
DF
  3
PageTagSettings/TagAlignment
350
E0
  3
PageTagSettings/TagFont
350
E1
  3
PageTagSettings/TagPosition
350
E2
  3
QCADVersion
350
E3
  3
UnitSettings/PaperUnit
350
E4
  3
ViewportCenter
350
E5
  3
ViewportHeight
350
E6
  3
ViewportWidth
350
E7
  0
XRECORD
  5
B3
330
B0
100
AcDbXrecord
280
1
1000
White
  0
XRECORD
  5
B4
330
B0
100
AcDbXrecord
280
1
1000
FullColor
  0
XRECORD
  5
B5
330
B0
100
AcDbXrecord
280
1
290
1
  0
XRECORD
  5
B6
330
B0
100
AcDbXrecord
280
1
290
1
  0
XRECORD
  5
B7
330
B0
100
AcDbXrecord
280
1
290
1
  0
XRECORD
  5
B8
330
B0
100
AcDbXrecord
280
1
290
1
  0
XRECORD
  5
B9
330
B0
100
AcDbXrecord
280
1
1000
auto
  0
XRECORD
  5
BA
330
B0
100
AcDbXrecord
280
1
1000
auto
  0
XRECORD
  5
BB
330
B0
100
AcDbXrecord
280
1
1000
auto
  0
XRECORD
  5
BC
330
B0
100
AcDbXrecord
280
1
1000
auto
  0
XRECORD
  5
BD
330
B0
100
AcDbXrecord
280
1
1000
auto
  0
XRECORD
  5
BE
330
B0
100
AcDbXrecord
280
1
1000
auto
  0
XRECORD
  5
BF
330
B0
100
AcDbXrecord
280
1
1000
auto
  0
XRECORD
  5
C0
330
B0
100
AcDbXrecord
280
1
1000
auto
  0
XRECORD
  5
C1
330
B0
100
AcDbXrecord
280
1
290
0
  0
XRECORD
  5
C2
330
B0
100
AcDbXrecord
280
1
290
0
  0
XRECORD
  5
C3
330
B0
100
AcDbXrecord
280
1
290
0
  0
XRECORD
  5
C4
330
B0
100
AcDbXrecord
280
1
290
0
  0
XRECORD
  5
C5
330
B0
100
AcDbXrecord
280
1
 90
65537
  0
XRECORD
  5
C6
330
B0
100
AcDbXrecord
280
1
 90
65537
  0
XRECORD
  5
C7
330
B0
100
AcDbXrecord
280
1
 90
65537
  0
XRECORD
  5
C8
330
B0
100
AcDbXrecord
280
1
 90
65537
  0
XRECORD
  5
C9
330
B0
100
AcDbXrecord
280
1
1000
auto
  0
XRECORD
  5
CA
330
B0
100
AcDbXrecord
280
1
1000
auto
  0
XRECORD
  5
CB
330
B0
100
AcDbXrecord
280
1
1000
auto
  0
XRECORD
  5
CC
330
B0
100
AcDbXrecord
280
1
1000
auto
  0
XRECORD
  5
CD
330
B0
100
AcDbXrecord
280
1
1000
auto
  0
XRECORD
  5
CE
330
B0
100
AcDbXrecord
280
1
1000
auto
  0
XRECORD
  5
CF
330
B0
100
AcDbXrecord
280
1
1000
auto
  0
XRECORD
  5
D0
330
B0
100
AcDbXrecord
280
1
1000
auto
  0
XRECORD
  5
D1
330
B0
100
AcDbXrecord
280
1
 90
1
  0
XRECORD
  5
D2
330
B0
100
AcDbXrecord
280
1
 40
10.0
  0
XRECORD
  5
D3
330
B0
100
AcDbXrecord
280
1
 40
10.0
  0
XRECORD
  5
D4
330
B0
100
AcDbXrecord
280
1
 40
10.0
  0
XRECORD
  5
D5
330
B0
100
AcDbXrecord
280
1
 40
10.0
  0
XRECORD
  5
D6
330
B0
100
AcDbXrecord
280
1
290
0
  0
XRECORD
  5
D7
330
B0
100
AcDbXrecord
280
1
 90
1
  0
XRECORD
  5
D8
330
B0
100
AcDbXrecord
280
1
 40
0.0
  0
XRECORD
  5
D9
330
B0
100
AcDbXrecord
280
1
 40
0.0
  0
XRECORD
  5
DA
330
B0
100
AcDbXrecord
280
1
1000
Portrait
  0
XRECORD
  5
DB
330
B0
100
AcDbXrecord
280
1
 40
297.0
  0
XRECORD
  5
DC
330
B0
100
AcDbXrecord
280
1
 40
210.0
  0
XRECORD
  5
DD
330
B0
100
AcDbXrecord
280
1
1000
1:1
  0
XRECORD
  5
DE
330
B0
100
AcDbXrecord
280
1
290
1
  0
XRECORD
  5
DF
330
B0
100
AcDbXrecord
280
1
290
0
  0
XRECORD
  5
E0
330
B0
100
AcDbXrecord
280
1
1000
Inside
  0
XRECORD
  5
E1
330
B0
100
AcDbXrecord
280
1
1000
Arial,10,-1,5,50,0,0,0,0,0
  0
XRECORD
  5
E2
330
B0
100
AcDbXrecord
280
1
1000
TopLeft
  0
XRECORD
  5
E3
330
B0
100
AcDbXrecord
280
1
1000
3.27.6.7
  0
XRECORD
  5
E4
330
B0
100
AcDbXrecord
280
1
 90
4
  0
XRECORD
  5
E6
330
B0
100
AcDbXrecord
280
1
 40
514.9109638958123014
  0
XRECORD
  5
E7
330
B0
100
AcDbXrecord
280
1
 40
1006.8012733838738768
  0
ENDSEC
  0
EOF
