M48
; DRILL file {KiCad (6.0.7)} date ma 01 aug 2022 09:36:34 CEST
; FORMAT={-:-/ absolute / inch / decimal}
; #@! TF.CreationDate,2022-08-01T09:36:34+02:00
; #@! TF.GenerationSoftware,Kicad,Pcbnew,(6.0.7)
; #@! TF.FileFunction,NonPlated,1,2,NPTH
FMAT,2
INCH
; #@! TA.AperFunction,NonPlated,NPTH,ComponentDrill
T1C0.0591
; #@! TA.AperFunction,NonPlated,NPTH,ComponentDrill
T2C0.0669
; #@! TA.AperFunction,NonPlated,NPTH,ComponentDrill
T3C0.0709
; #@! TA.AperFunction,NonPlated,NPTH,ComponentDrill
T4C0.1575
%
G90
G05
T1
X2.1744Y-3.5045
X2.1744Y-3.6955
T2
X4.5Y-3.45
X4.9Y-3.45
X5.375Y-3.45
X5.775Y-3.45
X6.25Y-3.45
X6.65Y-3.45
T3
X2.0551Y-3.4927
X2.0551Y-3.7073
T4
X4.7Y-3.45
X5.575Y-3.45
X6.45Y-3.45
T0
M30
