** Drc report for /Users/gertjan/PersonalProjects/conference_button/pcb/buttons/buttons.kicad_pcb **
** Created on 2022-09-10 09:55:49 **

** Found 0 DRC violations **

** Found 0 unconnected pads **

** Found 0 Footprint errors **

** End of Report **
